\relax 
\catcode `"\active 
\select@language{brazil}
\@writefile{toc}{\select@language{brazil}}
\@writefile{lof}{\select@language{brazil}}
\@writefile{lot}{\select@language{brazil}}
\@writefile{toc}{\contentsline {section}{\numberline {1}Introdu\IeC {\c c}\IeC {\~a}o}{1}}
\@writefile{toc}{\contentsline {section}{\numberline {2}Solu\IeC {\c c}\IeC {\~a}o do problema}{1}}
\@writefile{loa}{\contentsline {algocf}{\numberline {1}{\ignorespaces CreateSortedFiles(input\_file, memory, *len)\relax }}{2}}
\@writefile{loa}{\contentsline {algocf}{\numberline {2}{\ignorespaces MergeSortedFiless(output\_file, num\_files, len)\relax }}{2}}
\@writefile{loa}{\contentsline {algocf}{\numberline {3}{\ignorespaces FindSmaller(file, num\_files, len, *smaller)\relax }}{3}}
\@writefile{toc}{\contentsline {section}{\numberline {3}An\IeC {\'a}lise Te\IeC {\'o}rica do custo assint\IeC {\'o}tico}{3}}
\@writefile{toc}{\contentsline {subsection}{\numberline {3.1}An\IeC {\'a}lise do Custo Assint\IeC {\'o}tico de Espa\IeC {\c c}o}{3}}
\@writefile{toc}{\contentsline {subsection}{\numberline {3.2}An\IeC {\'a}lise do Custo Assint\IeC {\'o}tico de Tempo}{4}}
\@writefile{toc}{\contentsline {section}{\numberline {4}An\IeC {\'a}lise Experimental}{4}}
\@writefile{lof}{\contentsline {figure}{\numberline {1}{\ignorespaces Gr\IeC {\'a}fico do tamanho da entrada em fun\IeC {\c c}\IeC {\~a}o do tempo (ms) para resolver o problema.\relax }}{4}}
\@writefile{toc}{\contentsline {section}{\numberline {5}Refer\IeC {\^e}ncias}{5}}
